30_suitability_analysis
…
data <- left_join(data, score_by_nhood, by = "neighborhood")

data %>%
  filter(avg_nhood_rank <= 10)

## Simple feature collection with 103 features and 39 fields
## Geometry type: MULTIPOLYGON
## Dimension:     XY
## Bounding box:  xmin: 1142116 ymin: 1852926 xmax: 1200502 ymax: 1942675
## CRS:           +proj=tmerc +lat_0=36.66666666666666 +lon_0=-88.33333333333333 +k=0.9999749999999999 +x_0=300000.0000000001 +y_0=0 +ellps=GRS80 +datum=NAD83 +to_meter=0.3048006096012192 +no_defs
## # A tibble: 103 x 40
##    geoid neigh~1 parks~2 parks~3 libra~4 groce~5 n_gro~6 walk_~7 walk_~8 walk_~9
##  * <chr> <chr>     <dbl>   <dbl>   <dbl>   <dbl>   <dbl>   <dbl>   <dbl> <chr>  
##  1 1703~ Little~ 0.585    0.0404  0.268    0.170       6   142.     6.81 OK     
##  2 1703~ Oakland 0.0328   0.480   0.516    0.490       1    97.9    4.86 OK     
##  3 1703~ Washin~ 0.137    0.541   0.561    0.379       1   128.     6.32 OK     
##  4 1703~ Washin~ 0        0.627   0.940    0.287       2   141.     6.96 OK     
##  5 1703~ Grand ~ 0.233    0.172   0.195    0.112       3   111.     5.43 OK     
##  6 1703~ Grand ~ 0.204    0.278   0.0615   0.127       2   115.     5.69 OK     
##  7 1703~ Garfie~ 0.379    0.292   0.205    0.213       6   120.     5.77 OK     
##  8 1703~ Armour~ 0.0975   0.0558  0.332    0.736       0    95.0    4.61 OK     
##  9 1703~ South ~ 0.466    0.288   0.650    0.336       3   231.    11.5  OK     
## 10 1703~ Armour~ 0.00113  0.120   0.552    0.490       1    84.8    4.11 OK     
## # ... with 93 more rows, 30 more variables: transit_duration <dbl>,
## #   transit_distance <dbl>, transit_status <chr>, NAME <chr>, variable <chr>,
## #   median_rent_est <int>, median_rent_moe <int>,
## #   tract_aland_for_landuse <dbl>, singlefamily_aland <dbl>,
## #   multifamily_aland <dbl>, tract_pct_singlefamily <dbl>,
## #   tract_pct_multifamily <dbl>, geom <MULTIPOLYGON [US_survey_foot]>,
## #   walk_distance_bool <dbl>, transit_duration_bool <dbl>, ...
…
